<?xml version="1.0" encoding="UTF-8"?>
<svg width="308px" height="80px" viewBox="0 0 308 80" version="1.1" xmlns="http://www.w3.org/2000/svg" xmlns:xlink="http://www.w3.org/1999/xlink">
    <!-- Generator: Sketch 49.1 (51147) - http://www.bohemiancoding.com/sketch -->
    <title>Group 5</title>
    <desc>Created with Sketch.</desc>
    <defs>
        <rect id="path-1" x="0" y="0" width="308" height="80" rx="40"></rect>
    </defs>
    <g id="Symbols" stroke="none" stroke-width="1" fill="none" fill-rule="evenodd">
        <g id="Video-03-Overlay" transform="translate(-646.000000, -358.000000)">
            <g id="Group-5" transform="translate(646.000000, 358.000000)">
                <g id="Rectangle-Copy-9">
                    <use fill="#FCEA10" fill-rule="evenodd" xlink:href="#path-1"></use>
                    <rect stroke="#FCEA10" stroke-width="1" x="0.5" y="0.5" width="307" height="79" rx="39.5"></rect>
                </g>
                <text id="Partecipa-anche-tu!" font-family="GintoNormal-Regular, Ginto Normal" font-size="20" font-weight="normal" letter-spacing="0.5" fill="#000000">
                    <tspan x="44" y="47">PARTECIPA ANCHE TU!</tspan>
                </text>
            </g>
        </g>
    </g>
</svg>